[{"id":1,"first_name":"Fiann","last_name":"Brion","email":"fbrion0@google.co.jp","password":"Evkqbn"},
{"id":2,"first_name":"Isaiah","last_name":"Blaydes","email":"iblaydes1@amazon.co.uk","password":"Si8ZGHt0G0"},
{"id":3,"first_name":"Pollyanna","last_name":"Hayward","email":"phayward2@hexun.com","password":"l0sy4DDzFl"},
{"id":4,"first_name":"Indira","last_name":"Langtry","email":"ilangtry3@simplemachines.org","password":"ubpBN8"},
{"id":5,"first_name":"Richardo","last_name":"Bolitho","email":"rbolitho4@nsw.gov.au","password":"9NWtwFN"},
{"id":6,"first_name":"Hanny","last_name":"Windham","email":"hwindham5@1und1.de","password":"O11Qg4fGJZ"},
{"id":7,"first_name":"Bill","last_name":"Tripp","email":"btripp6@google.nl","password":"gO25lcDwDv4A"},
{"id":8,"first_name":"Jay","last_name":"Beed","email":"jbeed7@quantcast.com","password":"lm72E1lwR"},
{"id":9,"first_name":"Federica","last_name":"Gaul","email":"fgaul8@hexun.com","password":"bdPKcfq6B5S4"},
{"id":10,"first_name":"Helen","last_name":"Dendle","email":"hdendle9@google.fr","password":"4aJ4F8dO"},
{"id":11,"first_name":"Dasha","last_name":"Hovington","email":"dhovingtona@1688.com","password":"AnPughvkr"},
{"id":12,"first_name":"Dirk","last_name":"Heggie","email":"dheggieb@bbb.org","password":"Jx1zIICGRbk4"},
{"id":13,"first_name":"Nickola","last_name":"Radnage","email":"nradnagec@wiley.com","password":"xhHBdDKIZVRd"},
{"id":14,"first_name":"Emelita","last_name":"Constantine","email":"econstantined@wikipedia.org","password":"cnhlaWSw1l"},
{"id":15,"first_name":"Shaina","last_name":"Hunter","email":"shuntere@scientificamerican.com","password":"wHQAp1mFjR"},
{"id":16,"first_name":"Cherish","last_name":"Roskell","email":"croskellf@wired.com","password":"NRRMnfB"},
{"id":17,"first_name":"Laurence","last_name":"Kneafsey","email":"lkneafseyg@stanford.edu","password":"IjtB7U2J4At"},
{"id":18,"first_name":"Benn","last_name":"Solomonides","email":"bsolomonidesh@unesco.org","password":"dy52bb"},
{"id":19,"first_name":"Maris","last_name":"Pennycook","email":"mpennycooki@economist.com","password":"85ndl68V4"},
{"id":20,"first_name":"Mickie","last_name":"Figure","email":"mfigurej@jigsy.com","password":"dtCZLRGZXTz"},
{"id":21,"first_name":"Georas","last_name":"Haslock(e)","email":"ghaslockek@usa.gov","password":"v81KpsURx"},
{"id":22,"first_name":"Phil","last_name":"Kalaher","email":"pkalaherl@springer.com","password":"3R3i67HACb"},
{"id":23,"first_name":"Josephina","last_name":"Gardener","email":"jgardenerm@issuu.com","password":"THuDfXXtIE7"},
{"id":24,"first_name":"Perry","last_name":"Guilaem","email":"pguilaemn@infoseek.co.jp","password":"pzf58r"},
{"id":25,"first_name":"Cleon","last_name":"Aggas","email":"caggaso@sogou.com","password":"zEbFQeBFP6r"},
{"id":26,"first_name":"Stan","last_name":"Berrington","email":"sberringtonp@sbwire.com","password":"5FnaZENHB"},
{"id":27,"first_name":"Pat","last_name":"Derry","email":"pderryq@paginegialle.it","password":"VyZomtlD"},
{"id":28,"first_name":"Kaitlyn","last_name":"Jakel","email":"kjakelr@umich.edu","password":"IOmadZ"},
{"id":29,"first_name":"Gardner","last_name":"Vokins","email":"gvokinss@hao123.com","password":"jrgCXQhgR3G"},
{"id":30,"first_name":"Vere","last_name":"Algore","email":"valgoret@hp.com","password":"Bpi6Wwsysqk"},
{"id":31,"first_name":"Kikelia","last_name":"Lovitt","email":"klovittu@ameblo.jp","password":"PYCKq7"},
{"id":32,"first_name":"Maribelle","last_name":"Kyncl","email":"mkynclv@sitemeter.com","password":"tuKTJwEM"},
{"id":33,"first_name":"Alyda","last_name":"Hebditch","email":"ahebditchw@1und1.de","password":"w02tFReFBR"},
{"id":34,"first_name":"Anthea","last_name":"Maycey","email":"amayceyx@nature.com","password":"hC6jhikH"},
{"id":35,"first_name":"Aggi","last_name":"Bernocchi","email":"abernocchiy@reference.com","password":"tinK6MeD"},
{"id":36,"first_name":"Samuele","last_name":"Linneman","email":"slinnemanz@amazonaws.com","password":"5UAtM8"},
{"id":37,"first_name":"Thalia","last_name":"Boothebie","email":"tboothebie10@oracle.com","password":"1MBKZtSDXS8"},
{"id":38,"first_name":"Dorise","last_name":"Devas","email":"ddevas11@columbia.edu","password":"aBZEV5G3Np"},
{"id":39,"first_name":"Fayre","last_name":"Fitchet","email":"ffitchet12@shinystat.com","password":"6qALYp"},
{"id":40,"first_name":"Vincenz","last_name":"Hardwidge","email":"vhardwidge13@moonfruit.com","password":"rvWt3URDR"},
{"id":41,"first_name":"Justus","last_name":"Peers","email":"jpeers14@live.com","password":"Jag2B9L"},
{"id":42,"first_name":"Percival","last_name":"Eam","email":"peam15@issuu.com","password":"jBsL4tBc8wUY"},
{"id":43,"first_name":"Fayre","last_name":"Hartup","email":"fhartup16@wunderground.com","password":"hymkllesNTYH"},
{"id":44,"first_name":"Flin","last_name":"Annand","email":"fannand17@theguardian.com","password":"Yy1evKWetHW"},
{"id":45,"first_name":"Hermione","last_name":"Moseley","email":"hmoseley18@miibeian.gov.cn","password":"Mciyae6JBr"},
{"id":46,"first_name":"Miquela","last_name":"Bowers","email":"mbowers19@sakura.ne.jp","password":"R9PxFKoWgNEh"},
{"id":47,"first_name":"Gustav","last_name":"Whear","email":"gwhear1a@utexas.edu","password":"9dW3ksX"},
{"id":48,"first_name":"Karlee","last_name":"Le Maitre","email":"klemaitre1b@ed.gov","password":"EpSwx5IQ"},
{"id":49,"first_name":"Say","last_name":"Earl","email":"searl1c@hostgator.com","password":"bSZuc4R"},
{"id":50,"first_name":"Kellsie","last_name":"Lynes","email":"klynes1d@huffingtonpost.com","password":"qhidzG"}]